[{
		"_class": "com.vg.incubator.fft.category.Category",
		"name": "Dining",
		"description": "Expenses related to restaurants and dining"
	},
	{
		"_class": "com.vg.incubator.fft.category.Category",
		"name": "Entertainment",
		"description": "Expenses related to entertainment (e.g. movies, concerts)"
	},
	{
		"_class": "com.vg.incubator.fft.category.Category",
		"name": "Clothing/Shoes",
		"description": "Expenses related to clothing, shoes etc."
	},
	{
		"_class": "com.vg.incubator.fft.category.Category",
		"name": "Groceries",
		"description": "Expenses related to groceries"
	},
	{
		"_class": "com.vg.incubator.fft.category.Category",
		"name": "Auto and Gas",
		"description": "Expenses related to automtives and Gas"
	},
	{
		"_class": "com.vg.incubator.fft.category.Category",
		"name": "Others",
		"description": "Miscellaneous expenses"
	},

	{
		"_class": "com.vg.incubator.fft.user.User",
		"username": "joeuser",
		"dateOfBirth": "1969-01-20"
	},
	{
		"_class": "com.vg.incubator.fft.user.User",
		"username": "janeuser",
		"dateOfBirth": "1986-11-27"
	}
]
