[{
		"amount": 1000.00,
		"categoryName": "Dining",
		"transactionDate": "2019-07-01",
		"merchant": "burger store",
		"username": "joeuser"
	},
	{
		"amount": 70.99,
		"categoryName": "Dining",
		"transactionDate": "2019-08-10",
		"merchant": "burger store",
		"username": "joeuser"
	},
	{
		"amount": 15.01,
		"categoryName": "Dining",
		"transactionDate": "2019-08-15",
		"merchant": "burger store",
		"username": "joeuser"
	},
	{
		"amount": 8.02,
		"categoryName": "Dining",
		"transactionDate": "2019-08-15",
		"merchant": "The Burger Store",
		"username": "joeuser"
	},
	{
		"amount": 13.02,
		"categoryName": "Dining",
		"transactionDate": "2019-08-22",
		"merchant": "The Burger Store",
		"username": "joeuser"
	},
	{
		"amount": 8.02,
		"categoryName": "Dining",
		"transactionDate": "2019-08-25",
		"merchant": "The Burger Store",
		"username": "joeuser"
	},
	{
		"amount": 13.02,
		"categoryName": "Dining",
		"transactionDate": "2019-08-26",
		"merchant": "The Burger Store",
		"username": "joeuser"
	},
	{
		"amount": 8.02,
		"categoryName": "Dining",
		"transactionDate": "2019-08-28",
		"merchant": "The Burger Store",
		"username": "joeuser"
	},
	{
		"amount": 13.02,
		"categoryName": "Dining",
		"transactionDate": "2019-08-30",
		"merchant": "The Burger Store",
		"username": "joeuser"
	},
	{
		"amount": 100.13,
		"categoryName": "Dining",
		"transactionDate": "2019-09-02",
		"merchant": "The Burger Store",
		"username": "joeuser"
	},
	{
		"amount": 33.02,
		"categoryName": "Dining",
		"transactionDate": "2019-09-19",
		"merchant": "The Burger Store",
		"username": "joeuser"
	},
	{
		"amount": 1000.00,
		"categoryName": "Entertainment",
		"transactionDate": "2019-07-01",
		"merchant": "Fun Shoppe",
		"username": "joeuser"
	},
	{
		"amount": 70.99,
		"categoryName": "Entertainment",
		"transactionDate": "2019-08-01",
		"merchant": "Fun Shoppe",
		"username": "joeuser"
	},
	{
		"amount": 15.01,
		"categoryName": "Entertainment",
		"transactionDate": "2019-08-06",
		"merchant": "Fun Shoppe",
		"username": "joeuser"
	},
	{
		"amount": 14.02,
		"categoryName": "Entertainment",
		"transactionDate": "2019-08-07",
		"merchant": "Fun Shoppe",
		"username": "joeuser"
	},
	{
		"amount": 22.22,
		"categoryName": "Entertainment",
		"transactionDate": "2019-08-08",
		"merchant": "Fun Shoppe",
		"username": "joeuser"
	},
	{
		"amount": 99.99,
		"categoryName": "Entertainment",
		"transactionDate": "2019-08-09",
		"merchant": "Fun Shoppe",
		"username": "joeuser"
	},
	{
		"amount": 62.11,
		"categoryName": "Entertainment",
		"transactionDate": "2019-09-03",
		"merchant": "Fun Shoppe",
		"username": "joeuser"
	},
	{
		"amount": 220.89,
		"categoryName": "Entertainment",
		"transactionDate": "2019-08-01",
		"merchant": "Entertain R Us",
		"username": "joeuser"
	},
	{
		"amount": 160.00,
		"categoryName": "Entertainment",
		"transactionDate": "2019-08-30",
		"merchant": "Entertain R Us",
		"username": "joeuser"
	},
	{
		"amount": 73.01,
		"categoryName": "Entertainment",
		"transactionDate": "2019-09-10",
		"merchant": "Entertain R Us",
		"username": "joeuser"
	},
	{
		"amount": 44.02,
		"categoryName": "Entertainment",
		"transactionDate": "2019-09-20",
		"merchant": "Entertain R Us",
		"username": "joeuser"
	},
	{
		"amount": 450.51,
		"categoryName": "Entertainment",
		"transactionDate": "2019-09-24",
		"merchant": "Entertain R Us",
		"username": "joeuser"
	},
	{
		"amount": 1000.00,
		"categoryName": "Clothing/Shoes",
		"transactionDate": "2019-07-01",
		"merchant": "Buy Clothes Here",
		"username": "joeuser"
	},
	{
		"amount": 122.54,
		"categoryName": "Clothing/Shoes",
		"transactionDate": "2019-08-16",
		"merchant": "Buy Clothes Here",
		"username": "joeuser"
	},
	{
		"amount": 67.89,
		"categoryName": "Clothing/Shoes",
		"transactionDate": "2019-08-22",
		"merchant": "Buy Clothes Here",
		"username": "joeuser"
	},
	{
		"amount": 33.33,
		"categoryName": "Clothing/Shoes",
		"transactionDate": "2019-08-22",
		"merchant": "Buy Clothes Here",
		"username": "joeuser"
	},
	{
		"amount": 21.11,
		"categoryName": "Clothing/Shoes",
		"transactionDate": "2019-09-05",
		"merchant": "Buy Clothes Here",
		"username": "joeuser"
	},
	{
		"amount": 21.11,
		"categoryName": "Clothing/Shoes",
		"transactionDate": "2019-09-16",
		"merchant": "Buy Clothes Here",
		"username": "joeuser"
	},
	{
		"amount": 99.11,
		"categoryName": "Groceries",
		"transactionDate": "2019-08-08",
		"merchant": "Some Foods",
		"username": "joeuser"
	},
	{
		"amount": 115.22,
		"categoryName": "Groceries",
		"transactionDate": "2019-08-12",
		"merchant": "Some Foods",
		"username": "joeuser"
	},
	{
		"amount": 210.33,
		"categoryName": "Groceries",
		"transactionDate": "2019-08-18",
		"merchant": "Some Foods",
		"username": "joeuser"
	},
	{
		"amount": 44.16,
		"categoryName": "Groceries",
		"transactionDate": "2019-08-24",
		"merchant": "Some Foods",
		"username": "joeuser"
	},
	{
		"amount": 150.77,
		"categoryName": "Groceries",
		"transactionDate": "2019-09-02",
		"merchant": "Some Foods",
		"username": "joeuser"
	},
	{
		"amount": 263.22,
		"categoryName": "Groceries",
		"transactionDate": "2019-09-02",
		"merchant": "Some Foods",
		"username": "joeuser"
	},
	{
		"amount": 1000.00,
		"categoryName": "Dining",
		"transactionDate": "2019-07-01",
		"merchant": "burger store",
		"username": "janeuser"
	},
	{
		"amount": 70.99,
		"categoryName": "Dining",
		"transactionDate": "2019-08-10",
		"merchant": "burger store",
		"username": "janeuser"
	},
	{
		"amount": 15.01,
		"categoryName": "Dining",
		"transactionDate": "2019-08-15",
		"merchant": "burger store",
		"username": "janeuser"
	},
	{
		"amount": 8.02,
		"categoryName": "Dining",
		"transactionDate": "2019-08-15",
		"merchant": "The Burger Store",
		"username": "janeuser"
	},
	{
		"amount": 13.02,
		"categoryName": "Dining",
		"transactionDate": "2019-08-22",
		"merchant": "The Burger Store",
		"username": "janeuser"
	},
	{
		"amount": 8.02,
		"categoryName": "Dining",
		"transactionDate": "2019-08-25",
		"merchant": "The Burger Store",
		"username": "janeuser"
	},
	{
		"amount": 13.02,
		"categoryName": "Dining",
		"transactionDate": "2019-08-26",
		"merchant": "The Burger Store",
		"username": "janeuser"
	},
	{
		"amount": 8.02,
		"categoryName": "Dining",
		"transactionDate": "2019-08-28",
		"merchant": "The Burger Store",
		"username": "janeuser"
	},
	{
		"amount": 13.02,
		"categoryName": "Dining",
		"transactionDate": "2019-08-30",
		"merchant": "The Burger Store",
		"username": "janeuser"
	},
	{
		"amount": 100.13,
		"categoryName": "Dining",
		"transactionDate": "2019-09-02",
		"merchant": "The Burger Store",
		"username": "janeuser"
	},
	{
		"amount": 76.89,
		"categoryName": "Dining",
		"transactionDate": "2019-09-19",
		"merchant": "The Burger Store",
		"username": "janeuser"
	},
	{
		"amount": 1000.00,
		"categoryName": "Entertainment",
		"transactionDate": "2019-07-01",
		"merchant": "Fun Shoppe",
		"username": "janeuser"
	},
	{
		"amount": 70.99,
		"categoryName": "Entertainment",
		"transactionDate": "2019-08-01",
		"merchant": "Fun Shoppe",
		"username": "janeuser"
	},
	{
		"amount": 15.01,
		"categoryName": "Entertainment",
		"transactionDate": "2019-08-06",
		"merchant": "Fun Shoppe",
		"username": "janeuser"
	},
	{
		"amount": 14.02,
		"categoryName": "Entertainment",
		"transactionDate": "2019-08-07",
		"merchant": "Fun Shoppe",
		"username": "janeuser"
	},
	{
		"amount": 22.22,
		"categoryName": "Entertainment",
		"transactionDate": "2019-08-08",
		"merchant": "Fun Shoppe",
		"username": "janeuser"
	},
	{
		"amount": 99.99,
		"categoryName": "Entertainment",
		"transactionDate": "2019-08-09",
		"merchant": "Fun Shoppe",
		"username": "janeuser"
	},
	{
		"amount": 62.11,
		"categoryName": "Entertainment",
		"transactionDate": "2019-09-03",
		"merchant": "Fun Shoppe",
		"username": "janeuser"
	},
	{
		"amount": 220.89,
		"categoryName": "Entertainment",
		"transactionDate": "2019-08-01",
		"merchant": "Entertain R Us",
		"username": "janeuser"
	},
	{
		"amount": 160.00,
		"categoryName": "Entertainment",
		"transactionDate": "2019-08-30",
		"merchant": "Entertain R Us",
		"username": "janeuser"
	},
	{
		"amount": 73.01,
		"categoryName": "Entertainment",
		"transactionDate": "2019-09-10",
		"merchant": "Entertain R Us",
		"username": "janeuser"
	},
	{
		"amount": 67.31,
		"categoryName": "Entertainment",
		"transactionDate": "2019-09-20",
		"merchant": "Entertain R Us",
		"username": "janeuser"
	},
	{
		"amount": 600.41,
		"categoryName": "Entertainment",
		"transactionDate": "2019-09-24",
		"merchant": "Entertain R Us",
		"username": "janeuser"
	},
	{
		"amount": 1000.00,
		"categoryName": "Clothing/Shoes",
		"transactionDate": "2019-07-01",
		"merchant": "Buy Clothes Here",
		"username": "janeuser"
	},
	{
		"amount": 122.54,
		"categoryName": "Clothing/Shoes",
		"transactionDate": "2019-08-16",
		"merchant": "Buy Clothes Here",
		"username": "janeuser"
	},
	{
		"amount": 67.89,
		"categoryName": "Clothing/Shoes",
		"transactionDate": "2019-08-22",
		"merchant": "Buy Clothes Here",
		"username": "janeuser"
	},
	{
		"amount": 33.33,
		"categoryName": "Clothing/Shoes",
		"transactionDate": "2019-08-22",
		"merchant": "Buy Clothes Here",
		"username": "janeuser"
	},
	{
		"amount": 55.45,
		"categoryName": "Clothing/Shoes",
		"transactionDate": "2019-09-05",
		"merchant": "Buy Clothes Here",
		"username": "janeuser"
	},
	{
		"amount": 200.15,
		"categoryName": "Clothing/Shoes",
		"transactionDate": "2019-09-16",
		"merchant": "Buy Clothes Here",
		"username": "janeuser"
	},
	{
		"amount": 99.11,
		"categoryName": "Groceries",
		"transactionDate": "2019-08-08",
		"merchant": "Some Foods",
		"username": "janeuser"
	},
	{
		"amount": 115.22,
		"categoryName": "Groceries",
		"transactionDate": "2019-08-12",
		"merchant": "Some Foods",
		"username": "janeuser"
	},
	{
		"amount": 210.33,
		"categoryName": "Groceries",
		"transactionDate": "2019-08-18",
		"merchant": "Some Foods",
		"username": "janeuser"
	},
	{
		"amount": 44.16,
		"categoryName": "Groceries",
		"transactionDate": "2019-08-24",
		"merchant": "Some Foods",
		"username": "janeuser"
	},
	{
		"amount": 190.76,
		"categoryName": "Groceries",
		"transactionDate": "2019-09-02",
		"merchant": "Some Foods",
		"username": "janeuser"
	},
	{
		"amount": 263.22,
		"categoryName": "Groceries",
		"transactionDate": "2019-09-02",
		"merchant": "Some Foods",
		"username": "janeuser"
	}
]
